<?xml version="1.0" encoding="utf-8"?>
<!-- Generator: Adobe Illustrator 16.0.0, SVG Export Plug-In . SVG Version: 6.00 Build 0)  -->
<!DOCTYPE svg PUBLIC "-//W3C//DTD SVG 1.1//EN" "http://www.w3.org/Graphics/SVG/1.1/DTD/svg11.dtd">
<svg version="1.1" id="Layer_1" xmlns="http://www.w3.org/2000/svg" xmlns:xlink="http://www.w3.org/1999/xlink" x="0px" y="0px"
	 width="50px" height="50px" viewBox="0 0 50 50" enable-background="new 0 0 50 50" xml:space="preserve">
<g>
	<polygon fill="#FFFFFF" points="25,27.041 14.263,17.611 35.737,17.611 	"/>
	<polygon fill="#FFFFFF" points="20.723,24.997 13.197,31.605 13.197,18.389 	"/>
	<polygon fill="#FFFFFF" points="21.698,25.854 25,28.754 28.302,25.854 35.744,32.389 14.256,32.389 	"/>
	<polygon fill="#FFFFFF" points="29.276,24.998 36.803,18.389 36.803,31.605 	"/>
</g>
</svg>
