<?xml version="1.0" encoding="utf-8"?>
<!-- Generator: Adobe Illustrator 16.0.0, SVG Export Plug-In . SVG Version: 6.00 Build 0)  -->
<!DOCTYPE svg PUBLIC "-//W3C//DTD SVG 1.1//EN" "http://www.w3.org/Graphics/SVG/1.1/DTD/svg11.dtd">
<svg version="1.1" id="Layer_1" xmlns="http://www.w3.org/2000/svg" xmlns:xlink="http://www.w3.org/1999/xlink" x="0px" y="0px"
	 width="50px" height="50px" viewBox="0 0 50 50" enable-background="new 0 0 50 50" xml:space="preserve">
<g>
	<path fill="#1C6A9A" d="M26.123,23.622v-0.039c-0.006,0.014-0.017,0.027-0.026,0.039H26.123z"/>
	<rect x="15.862" y="21.871" fill="#FFFFFF" width="4.021" height="12.09"/>
	<path fill="#FFFFFF" d="M17.872,20.221h-0.026c-1.349,0-2.221-0.932-2.221-2.089c0-1.188,0.899-2.092,2.272-2.092
		c1.376,0,2.223,0.904,2.248,2.092C20.146,19.29,19.273,20.221,17.872,20.221z"/>
	<path fill="#FFFFFF" d="M34.375,33.961h-4.02v-6.469c0-1.625-0.581-2.736-2.037-2.736c-1.108,0-1.771,0.752-2.062,1.472
		c-0.107,0.26-0.134,0.617-0.134,0.98v6.752h-4.017c0,0,0.051-10.957,0-12.09h4.017v1.712c0.536-0.824,1.491-1.996,3.624-1.996
		c2.644,0,4.628,1.729,4.628,5.442V33.961z"/>
</g>
</svg>
